Introduction to movepub • movepub
…
The resulting occurrence.csv contains the Darwin Core
data, created by transforming the package data. Some of the
record level-terms at the beginning are set based on DataCite metadata
and the provided rights_holder:

readr::read_csv(file.path(dir_dwc, "occurrence.csv"), show_col_types = FALSE)
#> # A tibble: 5,827 × 31
#>    type  license            datasetID institutionCode collectionCode datasetName
#>    <chr> <chr>              <chr>     <chr>           <chr>          <chr>      
#>  1 Event https://creativec… https://… MPIAB           Movebank       O_ASSEN - …
#>  2 Event https://creativec… https://… MPIAB           Movebank       O_ASSEN - …
#>  3 Event https://creativec… https://… MPIAB           Movebank       O_ASSEN - …
#>  4 Event https://creativec… https://… MPIAB           Movebank       O_ASSEN - …
#>  5 Event https://creativec… https://… MPIAB           Movebank       O_ASSEN - …
#>  6 Event https://creativec… https://… MPIAB           Movebank       O_ASSEN - …
#>  7 Event https://creativec… https://… MPIAB           Movebank       O_ASSEN - …
#>  8 Event https://creativec… https://… MPIAB           Movebank       O_ASSEN - …
#>  9 Event https://creativec… https://… MPIAB           Movebank       O_ASSEN - …
#> 10 Event https://creativec… https://… MPIAB           Movebank       O_ASSEN - …
#> # ℹ 5,817 more rows
#> # ℹ 25 more variables: basisOfRecord <chr>, dataGeneralizations <chr>,
#> #   occurrenceID <chr>, sex <chr>, lifeStage <chr>,
#> #   reproductiveCondition <lgl>, occurrenceStatus <chr>, organismID <dbl>,
#> #   organismName <lgl>, eventID <chr>, parentEventID <chr>, eventType <chr>,
#> #   eventDate <dttm>, samplingProtocol <chr>, eventRemarks <chr>,
#> #   minimumElevationInMeters <dbl>, maximumElevationInMeters <dbl>, …
…
